{
    "resource": "/owntracks",
    "path": "/owntracks",
    "httpMethod": "POST",
    "headers": {
        "Accept-Encoding": "gzip",
        "Authorization": "Basic Y3JhaWc6bXlwYXNzd29yZA==",
        "CloudFront-Forwarded-Proto": "https",
        "CloudFront-Is-Desktop-Viewer": "true",
        "CloudFront-Is-Mobile-Viewer": "false",
        "CloudFront-Is-SmartTV-Viewer": "false",
        "CloudFront-Is-Tablet-Viewer": "false",
        "CloudFront-Viewer-Country": "ZA",
        "content-type": "application/json; charset=utf-8",
        "Host": "0hi36ximo4.execute-api.us-east-2.amazonaws.com",
        "User-Agent": "Owntracks/21201",
        "Via": "2.0 5abafd71b959c22e4ff11e24140d3386.cloudfront.net (CloudFront)",
        "X-Amz-Cf-Id": "mqYQ3wghIWytBg4hB2rGdHg0yqSlCfJiaLuwcJXqj7DclsWM-EZ5fg==",
        "X-Amzn-Trace-Id": "Root=1-5d4729f7-74ab844204603caaf3758f9e",
        "X-Forwarded-For": "41.13.204.74, 52.46.40.63",
        "X-Forwarded-Port": "443",
        "X-Forwarded-Proto": "https",
        "x-limit-d": "cmNote4DeviceID",
        "x-limit-u": "craig"
    },
    "multiValueHeaders": {
        "Accept-Encoding": [
            "gzip"
        ],
        "Authorization": [
            "Basic Y3JhaWc6bXlwYXNzd29yZA=="
        ],
        "CloudFront-Forwarded-Proto": [
            "https"
        ],
        "CloudFront-Is-Desktop-Viewer": [
            "true"
        ],
        "CloudFront-Is-Mobile-Viewer": [
            "false"
        ],
        "CloudFront-Is-SmartTV-Viewer": [
            "false"
        ],
        "CloudFront-Is-Tablet-Viewer": [
            "false"
        ],
        "CloudFront-Viewer-Country": [
            "ZA"
        ],
        "content-type": [
            "application/json; charset=utf-8"
        ],
        "Host": [
            "0hi36ximo4.execute-api.us-east-2.amazonaws.com"
        ],
        "User-Agent": [
            "Owntracks/21201"
        ],
        "Via": [
            "2.0 5abafd71b959c22e4ff11e24140d3386.cloudfront.net (CloudFront)"
        ],
        "X-Amz-Cf-Id": [
            "mqYQ3wghIWytBg4hB2rGdHg0yqSlCfJiaLuwcJXqj7DclsWM-EZ5fg=="
        ],
        "X-Amzn-Trace-Id": [
            "Root=1-5d4729f7-74ab844204603caaf3758f9e"
        ],
        "X-Forwarded-For": [
            "41.13.204.74, 52.46.40.63"
        ],
        "X-Forwarded-Port": [
            "443"
        ],
        "X-Forwarded-Proto": [
            "https"
        ],
        "X-Limit-D": [
            "cmNote4DeviceID"
        ],
        "X-Limit-U": [
            "craig"
        ]
    },
    "queryStringParameters": null,
    "multiValueQueryStringParameters": null,
    "pathParameters": null,
    "stageVariables": null,
    "requestContext": {
        "resourceId": "md6wfz",
        "resourcePath": "/owntracks",
        "httpMethod": "POST",
        "extendedRequestId": "d6N-vEjpCYcFeNg=",
        "requestTime": "04/Aug/2019:18:54:47 +0000",
        "path": "/Stage/owntracks",
        "accountId": "969141279529",
        "protocol": "HTTP/1.1",
        "stage": "Stage",
        "domainPrefix": "0hi36ximo4",
        "requestTimeEpoch": 1564944887946,
        "requestId": "54e54ea0-b6e9-11e9-a9b8-c77b17a3c814",
        "identity": {
            "cognitoIdentityPoolId": null,
            "accountId": null,
            "cognitoIdentityId": null,
            "caller": null,
            "sourceIp": "41.13.204.74",
            "principalOrgId": null,
            "accessKey": null,
            "cognitoAuthenticationType": null,
            "cognitoAuthenticationProvider": null,
            "userArn": null,
            "userAgent": "Owntracks/21201",
            "user": null
        },
        "domainName": "0hi36ximo4.execute-api.us-east-2.amazonaws.com",
        "apiId": "0hi36ximo4"
    },
    "body": "{\"_type\":\"location\",\"acc\":16,\"alt\":38,\"batt\":11,\"conn\":\"m\",\"inregions\":[\"home\"],\"lat\":-34.0967723,\"lon\":18.482505,\"t\":\"u\",\"tid\":\"cm\",\"tst\":1564944738,\"vac\":0,\"vel\":0}",
    "isBase64Encoded": false
}